{
  "file_generated_by": "FlutterFire CLI",
  "purpose": "FirebaseAppID & ProjectID for this Firebase app in this directory",
  "GOOGLE_APP_ID": "1:900829551611:ios:95972eca599a1a897b095e",
  "FIREBASE_PROJECT_ID": "prueba-plass",
  "GCM_SENDER_ID": "900829551611"
}